blink/tests/vcd/test_blink/test_counter.vcd
$comment Generated by Amaranth $end
$date 2022-04-08 23:56:23.410266 $end
$timescale 1 ps $end
$scope module bench $end
$scope module top $end
$var wire 1 ! clk $end
$var wire 1 " rst $end
$var wire 1 # ovf $end
$var wire 16 $ count $end
$var wire 1 % en $end
$upscope $end
$upscope $end
$enddefinitions $end
#0
$dumpvars
0!
0"
0#
b0 $
0%
$end
#500000
1!
#1000000
0!
#1500000
1!
#2000000
0!
#2500000
1!
#3000000
0!
#3500000
1!
#4000000
0!
#4500000
1!
#5000000
0!
#5500000
1!
#6000000
0!
#6500000
1!
#7000000
0!
#7500000
1!
#8000000
0!
#8500000
1!
#9000000
0!
#9500000
1!
#10000000
0!
#10500000
1!
#11000000
0!
#11500000
1!
#12000000
0!
#12500000
1!
#13000000
0!
#13500000
1!
#14000000
0!
#14500000
1!
#15000000
0!
#15500000
1!
#16000000
0!
#16500000
1!
#17000000
0!
#17500000
1!
#18000000
0!
#18500000
1!
#19000000
0!
#19500000
1!
#20000000
0!
#20500000
1!
#21000000
0!
#21500000
1!
#22000000
0!
#22500000
1!
#23000000
0!
#23500000
1!
#24000000
0!
#24500000
1!
#25000000
0!
#25500000
1!
#26000000
0!
#26500000
1!
#27000000
0!
#27500000
1!
#28000000
0!
#28500000
1!
#29000000
0!
#29500000
1!
#30000000
0!
#30500000
1!
1%
#31000000
0!
#31500000
1!
b1 $
#32000000
0!
#32500000
1!
b10 $
#33000000
0!
#33500000
1!
b11 $
#34000000
0!
#34500000
1!
b100 $
#35000000
0!
#35500000
1!
b101 $
#36000000
0!
#36500000
1!
b110 $
#37000000
0!
#37500000
1!
b111 $
#38000000
0!
#38500000
1!
b1000 $
#39000000
0!
#39500000
1!
b1001 $
#40000000
0!
#40500000
1!
b1010 $
#41000000
0!
#41500000
1!
b1011 $
#42000000
0!
#42500000
1!
b1100 $
#43000000
0!
#43500000
1!
b1101 $
#44000000
0!
#44500000
1!
b1110 $
#45000000
0!
#45500000
1!
b1111 $
#46000000
0!
#46500000
1!
b10000 $
#47000000
0!
#47500000
1!
b10001 $
#48000000
0!
#48500000
1!
b10010 $
#49000000
0!
#49500000
1!
b10011 $
#50000000
0!
#50500000
1!
b10100 $
#51000000
0!
#51500000
1!
b10101 $
#52000000
0!
#52500000
1!
b10110 $
#53000000
0!
#53500000
1!
b10111 $
#54000000
0!
#54500000
1!
b11000 $
#55000000
0!
#55500000
1#
1!
b11001 $
#56000000
0!
#56500000
0#
1!
b0 $
#57000000
0!
#57500000
1!
b1 $
